Design verification/projects/System Verilog/Mux8to1 using SV/tb.vcd
$date
	Sun Sep 14 11:37:39 2025
$end
$version
	QuestaSim Version 10.7c
$end
$timescale
	1ns
$end

$scope module tb $end

$scope module dut $end
$var wire 1 ! in [7] $end
$var wire 1 " in [6] $end
$var wire 1 # in [5] $end
$var wire 1 $ in [4] $end
$var wire 1 % in [3] $end
$var wire 1 & in [2] $end
$var wire 1 ' in [1] $end
$var wire 1 ( in [0] $end
$var wire 1 ) sel [2] $end
$var wire 1 * sel [1] $end
$var wire 1 + sel [0] $end
$var reg 1 , out $end
$upscope $end
$upscope $end
$enddefinitions $end
#0
$dumpvars
0,
1(
1'
0&
0%
0$
0#
0"
1!
0+
1*
1)
$end
#1
0(
0'
1&
1$
1#
1"
0!
1,
#2
0*
0)
1(
1'
0&
1%
0$
0"
#3
1*
1)
0(
0'
1&
0#
0,
#4
1'
0&
0%
1"
1,
#5
0)
1(
0'
1%
1$
1#
0,
#6
1+
0(
1'
1&
0#
0"
1!
1,
#7
0*
0&
1#
1"
